FishMicrobiome Alpha and Beta Diversity
…
red_dif_fams |> 
  filter(Family %in% keep_list$Family) |> 
  mutate(log2FoldChange_red = log2FoldChange) |> 
  select(Family, log2FoldChange_red) -> red_dif_fams2

sand_dif_fams |> 
  filter(Family %in% keep_list$Family) |> 
  mutate(log2FoldChange_sand = log2FoldChange) |> 
  select(Family, log2FoldChange_sand) -> sand_dif_fams2

left_join(red_dif_fams2, sand_dif_fams2, by = "Family")

# A tibble: 45 × 3
   Family              log2FoldChange_red log2FoldChange_sand
   <chr>                            <dbl>               <dbl>
 1 Methylophilaceae                 -16.2               -6.10
 2 Burkholderiaceae                 -10.5               -5.71
 3 Microscillaceae                  -12.5               -9.38
 4 Flavobacteriaceae                -16.4              -11.3 
 5 env.OPS 17                       -12.9               -9.68
 6 Vicinamibacteraceae              -13.4               -7.09
 7 Saprospiraceae                   -12.9              -10.1 
 8 Chitinophagaceae                 -12.1               -7.80
 9 Hyphomonadaceae                  -12.5               -8.87
10 Rhodocyclaceae                   -15.5               -7.86
# ℹ 35 more rows
…
